现有一个数据库记录文件（见附件0005_1.txt），保存了学生课程签到的数据库记录。 内容格式如下 ，

('2017-03-13 11:50:09', 271, 131),
('2017-03-14 10:52:19', 273, 131),
('2017-03-13 11:50:19', 271, 126),
每一行记录保存了学生的一次签到信息。

每一次签到信息的记录，分为三个部分， 分别是签到时间、签到课程的id号、签到学生的id号

要求大家实现下面的函数。其中参数fileName 为 数据库记录文件路径， 输出结果是将数据库记录文件中的学生签到信息保存在一个字典对象中，并作为返回值返回。

def putInfoToDict(fileName):

要求返回的字典对象的格式是这样的：

key 是各个学生的id号， value是 该学生的签到信息

   其中value，里面保存着该学生所有签到的信息

       其中每个签到的信息是字典对象，有两个元素： key 是lessonid的 记录课程id，key是checkintime的 记录签到时间

比如，对于上面的示例中的3条记录，相应的返回结果如下：

{
    131: [
        {'lessonid': 271,'checkintime':'2017-03-13 11:50:09'},
        {'lessonid': 273,'checkintime':'2017-03-14 10:52:19'},
    ],
    
    
    126: [
        {'lessonid': 271,'checkintime':'2017-03-13 11:50:19'}
    ]
    
}




【附件0005_1.txt内容如下】：
        ('2017-03-13 11:50:09', 271, 131),
	('2017-03-13 11:50:19', 271, 126),
	('2017-03-13 11:50:25', 271, 85),
	('2017-03-13 11:50:31', 271, 118),
	('2017-03-13 11:50:34', 271, 119),
	('2017-03-13 11:50:44', 271, 109),
	('2017-03-13 11:50:55', 271, 79),
	('2017-03-13 11:50:58', 271, 121),
	('2017-03-13 11:51:02', 271, 116),
	('2017-03-13 11:51:05', 271, 125),
	('2017-03-13 11:51:32', 271, 64),
	('2017-03-13 11:51:38', 271, 123),
	('2017-03-13 11:51:39', 271, 122),
	('2017-03-13 11:51:41', 271, 82),
	('2017-03-13 11:51:41', 271, 51),
	('2017-03-13 11:51:41', 271, 53),
	('2017-03-13 11:51:43', 271, 98),
	('2017-03-13 11:51:44', 271, 128),
	('2017-03-13 11:51:48', 271, 38),
	('2017-03-13 11:51:48', 271, 67),
	('2017-03-13 11:51:58', 271, 110),
	('2017-03-13 11:52:01', 271, 40),
	('2017-03-13 11:52:07', 271, 35),
	('2017-03-13 11:52:13', 271, 108),
	('2017-03-13 11:52:14', 271, 77),
	('2017-03-13 11:52:18', 271, 115),
	('2017-03-13 11:52:21', 271, 68),
	('2017-03-13 11:52:22', 271, 129),
	('2017-03-13 11:52:27', 271, 127),
	('2017-03-13 11:52:30', 271, 81),
	('2017-03-13 11:52:44', 271, 37),
	('2017-03-13 11:52:46', 271, 43),
	('2017-03-13 11:53:10', 271, 133),
	('2017-03-13 11:53:39', 271, 56),
	('2017-03-13 11:54:17', 271, 78),
	('2017-03-13 11:54:19', 271, 130),
	('2017-03-13 11:54:24', 271, 99),
	('2017-03-13 11:54:27', 271, 90),
	('2017-03-13 11:54:47', 271, 114),
	('2017-03-13 11:55:22', 271, 103),
	('2017-03-13 11:55:28', 271, 106),
	('2017-03-13 11:55:49', 271, 104),
	('2017-03-13 11:56:04', 271, 96),
	('2017-03-13 11:56:32', 271, 111),
	('2017-03-13 11:56:44', 271, 55),
	('2017-03-13 11:56:58', 271, 88),
	('2017-03-13 11:57:14', 271, 101),
	('2017-03-13 11:57:33', 271, 107),
	('2017-03-13 11:58:01', 271, 69),
	('2017-03-13 11:58:03', 271, 71),
	('2017-03-13 11:58:18', 271, 61),
	('2017-03-13 11:58:29', 271, 74),
	('2017-03-13 11:58:30', 271, 76),
	('2017-03-13 11:58:53', 271, 91),
	('2017-03-13 11:59:01', 271, 66),
	('2017-03-13 11:59:14', 271, 83),
	('2017-03-13 11:59:18', 271, 46),
	('2017-03-13 11:59:40', 271, 135),
	('2017-03-13 12:00:08', 271, 113),
	('2017-03-13 12:00:14', 271, 75),
	('2017-03-13 12:00:18', 271, 34),
	('2017-03-13 12:00:39', 271, 93),
	('2017-03-13 12:02:27', 271, 45),
	('2017-03-13 12:03:30', 271, 94),
	('2017-03-13 12:05:23', 271, 87),
	('2017-03-13 12:05:30', 271, 102),
	('2017-03-13 12:05:52', 271, 60),
	('2017-03-13 12:06:31', 271, 134),
	('2017-03-13 12:06:41', 271, 132),
	('2017-03-13 12:07:28', 271, 95),
	('2017-03-14 00:50:07', 272, 38),
	('2017-03-14 00:50:13', 272, 115),
	('2017-03-14 00:50:34', 272, 85),
	('2017-03-14 00:50:53', 272, 126),
	('2017-03-14 00:51:12', 272, 51),
	('2017-03-14 00:51:25', 272, 87),
	('2017-03-14 00:51:29', 272, 114),
	('2017-03-14 00:51:34', 272, 108),
	('2017-03-14 00:51:38', 272, 131),
	('2017-03-14 00:51:51', 272, 67),
	('2017-03-14 00:52:11', 272, 129),
	('2017-03-14 00:52:11', 272, 116),
	('2017-03-14 00:52:16', 272, 56),
	('2017-03-14 00:53:26', 272, 35),
	('2017-03-14 00:53:31', 272, 133),
	('2017-03-14 00:53:51', 272, 110),
	('2017-03-14 00:54:01', 272, 64),
	('2017-03-14 00:54:22', 272, 104),
	('2017-03-14 00:54:50', 272, 98),
	('2017-03-14 00:54:55', 272, 125),
	('2017-03-14 00:55:18', 272, 121),
	('2017-03-14 00:55:49', 272, 45),
	('2017-03-14 00:55:50', 272, 75),
	('2017-03-14 00:56:02', 272, 96),
	('2017-03-14 00:56:13', 272, 90),
	('2017-03-14 00:56:23', 272, 54),
	('2017-03-14 00:56:35', 272, 102),
	('2017-03-14 00:57:06', 272, 122),
	('2017-03-14 00:57:08', 272, 123),
	('2017-03-14 00:57:44', 272, 74),
	('2017-03-14 00:58:14', 272, 135),
	('2017-03-14 00:58:36', 272, 78),
	('2017-03-14 00:59:01', 272, 113),
	('2017-03-14 01:02:38', 272, 95),
	('2017-03-14 01:04:26', 272, 130),
	('2017-03-14 01:04:52', 272, 83),
	('2017-03-14 01:05:49', 272, 107),
	('2017-03-14 01:07:16', 272, 61),
	('2017-03-14 11:50:13', 273, 67),
	('2017-03-14 11:50:15', 273, 141),
	('2017-03-14 11:50:25', 273, 121),
	('2017-03-14 11:50:31', 273, 120),
	('2017-03-14 11:50:46', 273, 108),
	('2017-03-14 11:50:49', 273, 126),
	('2017-03-14 11:50:59', 273, 35),
	('2017-03-14 11:51:00', 273, 43),
	('2017-03-14 11:51:07', 273, 85),
	('2017-03-14 11:51:10', 273, 103),
	('2017-03-14 11:51:11', 273, 106),
	('2017-03-14 11:51:17', 273, 105),
	('2017-03-14 11:51:18', 273, 81),
	('2017-03-14 11:51:19', 273, 115),
	('2017-03-14 11:51:28', 273, 114),
	('2017-03-14 11:51:32', 273, 59),
	('2017-03-14 11:51:52', 273, 92),
	('2017-03-14 11:51:54', 273, 38),
	('2017-03-14 11:52:02', 273, 131),
	('2017-03-14 11:52:08', 273, 94),
	('2017-03-14 11:52:20', 273, 110),
	('2017-03-14 11:52:24', 273, 56),
	('2017-03-14 11:52:45', 273, 75),
	('2017-03-14 11:52:50', 273, 64),
	('2017-03-14 11:52:52', 273, 133),
	('2017-03-14 11:52:56', 273, 116),
	('2017-03-14 11:53:02', 273, 95),
	('2017-03-14 11:53:04', 273, 125),
	('2017-03-14 11:53:24', 273, 102),
	('2017-03-14 11:53:24', 273, 74),
	('2017-03-14 11:53:31', 273, 129),
	('2017-03-14 11:53:33', 273, 138),
	('2017-03-14 11:53:33', 273, 122),
	('2017-03-14 11:53:37', 273, 91),
	('2017-03-14 11:53:39', 273, 130),
	('2017-03-14 11:53:40', 273, 113),
	('2017-03-14 11:53:44', 273, 87),
	('2017-03-14 11:53:56', 273, 55),
	('2017-03-14 11:54:40', 273, 104),
	('2017-03-14 11:55:04', 273, 51),
	('2017-03-14 11:55:11', 273, 77),
	('2017-03-14 11:55:13', 273, 119),
	('2017-03-14 11:55:46', 273, 142),
	('2017-03-14 11:55:56', 273, 69),
	('2017-03-14 11:56:23', 273, 109),
	('2017-03-14 11:56:43', 273, 37),
	('2017-03-14 11:56:54', 273, 136),
	('2017-03-14 11:56:55', 273, 83),
	('2017-03-14 11:56:55', 273, 98),
	('2017-03-14 11:56:59', 273, 53),
	('2017-03-14 11:57:14', 273, 60),
	('2017-03-14 11:57:24', 273, 111),
	('2017-03-14 11:57:26', 273, 46),
	('2017-03-14 11:57:50', 273, 61),
	('2017-03-14 11:57:51', 273, 76),
	('2017-03-14 11:58:01', 273, 45),
	('2017-03-14 11:58:07', 273, 99),
	('2017-03-14 11:58:11', 273, 82),
	('2017-03-14 11:58:32', 273, 139),
	('2017-03-14 11:58:47', 273, 127),
	('2017-03-14 11:59:06', 273, 68),
	('2017-03-14 12:00:07', 273, 135),
	('2017-03-14 12:01:29', 273, 78),
	('2017-03-14 12:02:18', 273, 107),
	('2017-03-14 12:02:44', 273, 96),
	('2017-03-14 12:03:42', 273, 54),
	('2017-03-14 12:06:04', 273, 40),
	('2017-03-14 12:06:28', 273, 39),
	('2017-03-16 00:50:04', 274, 116),
	('2017-03-16 00:50:06', 274, 38),
	('2017-03-16 00:50:13', 274, 68),
	('2017-03-16 00:50:15', 274, 79),
	('2017-03-16 00:50:17', 274, 115),
	('2017-03-16 00:50:25', 274, 98),
	('2017-03-16 00:50:37', 274, 77),
	('2017-03-16 00:50:40', 274, 57),
	('2017-03-16 00:50:49', 274, 107),
	('2017-03-16 00:51:09', 274, 67),
	('2017-03-16 00:51:11', 274, 104),
	('2017-03-16 00:51:19', 274, 142),
	('2017-03-16 00:51:30', 274, 135),
	('2017-03-16 00:51:31', 274, 114),
	('2017-03-16 00:51:37', 274, 64),
	('2017-03-16 00:51:58', 274, 75),
	('2017-03-16 00:52:15', 274, 111),
	('2017-03-16 00:52:33', 274, 78),
	('2017-03-16 00:52:54', 274, 129),
	('2017-03-16 00:53:03', 274, 110),
	('2017-03-16 00:53:23', 274, 122),
	('2017-03-16 00:53:36', 274, 37),
	('2017-03-16 00:53:45', 274, 85),
	('2017-03-16 00:54:19', 274, 123),
	('2017-03-16 00:54:26', 274, 102),
	('2017-03-16 00:54:48', 274, 103),
	('2017-03-16 00:54:52', 274, 51),
	('2017-03-16 00:55:41', 274, 131),
	('2017-03-16 00:56:13', 274, 121),
	('2017-03-16 00:56:55', 274, 70),
	('2017-03-16 00:56:58', 274, 124),
	('2017-03-16 00:57:22', 274, 126),
	('2017-03-16 00:58:14', 274, 62),
	('2017-03-16 00:58:27', 274, 133),
	('2017-03-16 00:58:28', 274, 120),
	('2017-03-16 00:58:57', 274, 55),
	('2017-03-16 00:59:30', 274, 96),
	('2017-03-16 00:59:30', 274, 113),
	('2017-03-16 01:00:03', 274, 125),
	('2017-03-16 01:02:29', 274, 130),
	('2017-03-16 01:02:47', 274, 95),
	('2017-03-16 01:03:04', 274, 60),
	('2017-03-16 01:03:06', 274, 83),
	('2017-03-16 01:07:59', 274, 56);


【参考答案，往下翻】































def putInfoToDict(fileName):
    retDict = {}
    with open(fileName) as f:
        lines = f.read().splitlines()
        
        for line in lines:
            # remove '(' and ')'
            line = line.replace('(','').replace(')','').replace(';','').strip()
            
            parts = line.split(',')
            ciTime     = parts[0].strip().replace("'",'')
            lessonid   = int(parts[1].strip())
            
            
            userid     = int(parts[2].strip())
            
            toAdd = {'lessonid':lessonid,'checkintime':ciTime}
            # if not in, need to create list first
            if userid not in retDict:
                retDict[userid] = []            
            retDict[userid].append(toAdd)
    
            # or just 
            #retDict.setdefault(userid,[]).append(toAdd)
    
    return retDict
    

    
ret = putInfoToDict('0005_1.txt')

import pprint
pprint.pprint(ret)